[
  {
    "name": "10mm SMG",
    "special": [
      "automatic"
    ],
    "cost": "310",
    "AP": 5,
    "damage": "1d4 ballistic per attack, up to 3.",
    "range": "x4/x8",
    "crit": "20, x2.",
    "ammo": "10mm",
    "reload": 30,
    "carryLoad": 5,
    "strReq": 4,
    "type": "ranged",
    "category": "smg"
  },
  {
    "name": "9mm SMG",
    "special": [
      "automatic"
    ],
    "cost": "250",
    "AP": 5,
    "damage": "1d3 ballistic per attack, up to 3.",
    "range": "x4/x8",
    "crit": "20, x2.",
    "ammo": "9mm",
    "reload": 30,
    "carryLoad": 5,
    "strReq": 4,
    "type": "ranged",
    "category": "smg"
  },
  {
    "name": "H&K P90c",
    "special": [
      "automatic"
    ],
    "cost": "580",
    "AP": 5,
    "damage": "1d8 ballistic per attack, up to 4.",
    "range": "x6/x10",
    "crit": "20, x2.",
    "ammo": "10mm",
    "reload": 24,
    "carryLoad": 6,
    "strReq": 5,
    "type": "ranged",
    "category": "smg"
  },
  {
    "name": "H&K G11",
    "special": [
      "automatic"
    ],
    "cost": 930,
    "AP": 5,
    "damage": "1d10 ballistic per attack, up to 5.",
    "range": "x6/x10",
    "crit": "20, x2.",
    "ammo": "4.7mm",
    "reload": 50,
    "carryLoad": 8,
    "strReq": 5,
    "type": "ranged",
    "category": "smg"
  },
  {
    "name": "Thompson SMG",
    "special": [
      "automatic"
    ],
    "cost": 480,
    "AP": 5,
    "damage": "1d4 ballistic per attack, up to 5.",
    "range": "x4/x8",
    "crit": "20, x2.",
    "ammo": ".45",
    "reload": 50,
    "carryLoad": 7,
    "strReq": 6,
    "type": "ranged",
    "category": "smg"
  },
  {
    "name": "H&H Tools nail gun (automatic)",
    "special": [
      "automatic"
    ],
    "cost": 90,
    "AP": 6,
    "damage": "1 ballistic per attack, up to 3.",
    "range": "x2/x4",
    "crit": "20, x4.",
    "ammo": "Nails",
    "reload": 90,
    "carryLoad": 5,
    "strReq": 4,
    "type": "ranged",
    "category": "smg"
  }
]
