[
  {
    "name": "Baked Bloatfly",
    "cost": 10,
    "details": [
      "Reduces Hunger. If Hunger is reduced to 0, gain Full. You regain a number of Stamina Points equal to 1d6 x your level. You gain a +1 on Rad Resist for 2 hours. "
    ],
    "carryLoad": 1
  },
  {
    "name": "Bighorner steak",
    "cost": 10,
    "details": [
      "Reduces Hunger. If Hunger is reduced to 0, gain Full. You regain a number of Stamina Points equal to 1d8 x your level.  "
    ],
    "carryLoad": 1
  },
  {
    "name": "Bloodbug Steak",
    "cost": 10,
    "details": [
      "Reduces Hunger. If Hunger is reduced to 0, gain Full. You regain a number of Stamina Points equal to 1d6 x your level. You gain temporary Hit Points equal to your level. "
    ],
    "carryLoad": 1
  },
  {
    "name": "Deathclaw Egg Omelette",
    "cost": 10,
    "details": [
      "Reduces Hunger. If Hunger is reduced to 0, gain Full. You regain a number of Stamina Points equal to 2d8 x your level. You regain Hit Points equal to your healing rate every 10 minutes for 2 hours. "
    ],
    "carryLoad": 1
  },
  {
    "name": "Deathclaw Steak",
    "cost": 10,
    "details": [
      "Reduces Hunger. If Hunger is reduced to 0, gain Full. You regain a number of Stamina Points equal to 2d6 x your level. Gain +2 AP (max. 15) for 6 hours. If AP is already equal to 15, you recycle all AP at the beginning of each turn. "
    ],
    "carryLoad": 1
  },
  {
    "name": "Desert Salad",
    "cost": 10,
    "details": [
      "Reduces Hunger. If Hunger is reduced to 0, gain Full. Regain all Stamina Points.  "
    ],
    "carryLoad": 1
  },
  {
    "name": "Fire ant fricassée",
    "cost": 10,
    "details": [
      "Reduces Hunger. If Hunger is reduced to 0, gain Full. You regain a number of Stamina Points equal to 1d8 x your level. Gain resistance to Fire damage for 2 hours. "
    ],
    "carryLoad": 1
  },
  {
    "name": "Gecko steak",
    "cost": 10,
    "details": [
      "Reduces Hunger. If Hunger is reduced to 0, gain Full. You regain a number of Stamina Points equal to 1d6 x your level.  "
    ],
    "carryLoad": 1
  },
  {
    "name": "Grilled Radroach",
    "cost": 10,
    "details": [
      "Reduces Hunger. If Hunger is reduced to 0, gain Full. You regain a number of Stamina Points equal to 1d6 x your level. You gain a +1 on Rad Resist for 2 hours. "
    ],
    "carryLoad": 1
  },
  {
    "name": "Grilled Radstag",
    "cost": 10,
    "details": [
      "Reduces Hunger. If Hunger is reduced to 0, gain Full.  Cooked Food44 You regain a number of Stamina Points equal to 1d6 x your level. Gain a +25 to Carry Load for 6 hours."
    ],
    "carryLoad": 1
  },
  {
    "name": "Iguana on a Stick",
    "cost": 10,
    "details": [
      "Reduces Hunger. If Hunger is reduced to 0, gain Full. You regain a number of Stamina Points equal to 1d4 x your level. "
    ],
    "carryLoad": 1
  },
  {
    "name": "Mole rat chunks",
    "cost": 10,
    "details": [
      "Reduces Hunger. If Hunger is reduced to 0, gain Full. You regain a number of Stamina Points equal to 1d4 x your level. Gain +1 AP (max. 15) for 1 hour. "
    ],
    "carryLoad": 1
  },
  {
    "name": "Mole rat stew",
    "cost": 10,
    "details": [
      "Reduces Hunger. If Hunger is reduced to 0, gain Full. You regain a number of Stamina Points equal to 1d6 x your level. Gain a +10 to Carry Load for 6 hours. "
    ],
    "carryLoad": 1
  },
  {
    "name": "Mutt chops",
    "cost": 10,
    "details": [
      "Reduces Hunger. If Hunger is reduced to 0, gain Full. You regain a number of Stamina Points equal to 1d6 x your level. "
    ],
    "carryLoad": 1
  },
  {
    "name": "Radscorpion egg omelette",
    "cost": 10,
    "details": [
      "Reduces Hunger. If Hunger is reduced to 0, gain Full. You regain a number of Stamina Points equal to 1d4 x your level. Cures one addiction. "
    ],
    "carryLoad": 1
  },
  {
    "name": "Radscorpion steak",
    "cost": 10,
    "details": [
      "Reduces Hunger. If Hunger is reduced to 0, gain Full. You regain a number of Stamina Points equal to 1d6 x your level. +1 DT for 1 Hour. "
    ],
    "carryLoad": 1
  },
  {
    "name": "Radstag stew",
    "cost": 10,
    "details": [
      "Reduces Hunger. If Hunger is reduced to 0, gain Full. You regain a number of Stamina Points equal to 1d6 x your level. +1 DT for 1 Hour. "
    ],
    "carryLoad": 1
  },
  {
    "name": "Ribeye steak",
    "cost": 10,
    "details": [
      "Reduces Hunger. If Hunger is reduced to 0, gain Full. You regain a number of Stamina Points equal to 1d6 x your level. "
    ],
    "carryLoad": 1
  },
  {
    "name": "Roasted ant",
    "cost": 10,
    "details": [
      "Reduces Hunger. If Hunger is reduced to 0, gain Full. You regain a number of Stamina Points equal to 1d4 x your level. "
    ],
    "carryLoad": 1
  },
  {
    "name": "Roasted mirelurk meat",
    "cost": 10,
    "details": [
      "Reduces Hunger. If Hunger is reduced to 0, gain Full. You regain a number of Stamina Points equal to 1d4 x your level. Gain +1 AP (max. 15) for 1 hour. "
    ],
    "carryLoad": 1
  },
  {
    "name": "Vegetable soup",
    "cost": 10,
    "details": [
      "Reduces Hunger. If Hunger is reduced to 0, gain Full. You regain a number of Stamina Points equal to your level. Gain +2 to Rad Resist"
    ],
    "carryLoad": 1
  },
  {
    "name": "Wasteland omelet",
    "cost": 10,
    "details": [
      "Reduces Hunger. If Hunger is reduced to 0, gain Full. You regain a number of Stamina Points equal to 1d8 x your level. You regain Hit Points equal to your healing rate at the start of each of your turns for 10 minutes. "
    ],
    "carryLoad": 1
  },
  {
    "name": "Yao guai roast",
    "cost": 10,
    "details": [
      "Reduces Hunger. If Hunger is reduced to 0, gain Full. You regain a number of Stamina Points equal to 1d6 x your level. Gain +2 Damage to Melee Weapon Attacks for 1 hour. "
    ],
    "carryLoad": 1
  }
]
