[
  {
    "name": "T-45",
    "cost": 4050,
    "AC": 14,
    "DT": 4,
    "repairMaterial": "Steel, DC 18",
    "fusionCoreUsage": "4 hours.",
    "carryLoad": 80,
    "wearLoad": 0,
    "strReq": 1,
    "type": "power"
  },
  {
    "name": "T-51",
    "cost": 20250,
    "AC": 15,
    "DT": 6,
    "repairMaterial": "Steel, DC 19",
    "fusionCoreUsage": "6 hours.",
    "carryLoad": 80,
    "wearLoad": 0,
    "strReq": 1,
    "type": "power"
  },
  {
    "name": "T-60",
    "cost": 133000,
    "AC": 16,
    "DT": 8,
    "repairMaterial": "Steel, DC 20",
    "fusionCoreUsage": "4 hours.",
    "carryLoad": 80,
    "wearLoad": 0,
    "strReq": 1,
    "type": "power"
  },
  {
    "name": "X-01",
    "cost": 133500,
    "AC": 16,
    "DT": 8,
    "repairMaterial": "Steel, DC 22",
    "fusionCoreUsage": "3 hours.",
    "carryLoad": 80,
    "wearLoad": 0,
    "strReq": 1,
    "type": "power"
  },
  {
    "name": "X-02",
    "cost": 135000,
    "AC": 16,
    "DT": 8,
    "repairMaterial": "Steel, DC 22",
    "fusionCoreUsage": "3 hours.",
    "carryLoad": 80,
    "wearLoad": 0,
    "strReq": 1,
    "type": "power"
  }
]
