[
  {
    "name": "Brass Knuckles",
    "cost": 20,
    "AP": 3,
    "damage": "2d4 bludgeoning.",
    "crit": "20, 1d4.",
    "details": "-",
    "carryLoad": 1,
    "strReq": 2,
    "type": "unarmed"
  },
  {
    "name": "Spiked Knuckles",
    "cost": 50,
    "AP": 3,
    "damage": "2d6 piercing or slashing.",
    "crit": "20, Bleeding.",
    "details": "-",
    "carryLoad": 1,
    "strReq": 2,
    "type": "unarmed"
  },
  {
    "name": "Boxing Gloves",
    "cost": 20,
    "AP": 3,
    "damage": "1d4 bludgeoning.",
    "crit": "20, 1d4.",
    "details": "Increases DT from blocking by 2.",
    "carryLoad": 3,
    "strReq": 3,
    "type": "unarmed"
  },
  {
    "name": "Boxing Tape",
    "cost": 10,
    "AP": 3,
    "damage": "1d4 bludgeoning.",
    "crit": "19-20, 1d4.",
    "details": "-",
    "carryLoad": 1,
    "strReq": 1,
    "type": "unarmed"
  },
  {
    "name": "Death Tambo",
    "cost": 75,
    "AP": 3,
    "damage": "3d6 piercing or slashing.",
    "crit": "20, deafens.",
    "details": "-",
    "carryLoad": 5,
    "strReq": 3,
    "type": "unarmed"
  },
  {
    "name": "Bear Skull Arm",
    "cost": 100,
    "AP": 3,
    "damage": "3d6 piercing or slashing.",
    "crit": "20, bleeding.",
    "details": "-",
    "carryLoad": 6,
    "strReq": 5,
    "type": "unarmed"
  },
  {
    "name": "Deathclaw Gauntlet",
    "cost": 200,
    "AP": 3,
    "damage": "3d12 slashing.",
    "crit": "20, 1d12.",
    "details": "-",
    "carryLoad": 4,
    "strReq": 5,
    "type": "unarmed"
  },
  {
    "name": "Bear Trap Fist",
    "cost": 100,
    "AP": 4,
    "damage": "3d4 piercing.",
    "crit": "20, x2.",
    "details": "Dealing HP damage causes targets to be grappled (escape DC 15)",
    "carryLoad": 8,
    "strReq": 7,
    "type": "unarmed"
  },
  {
    "name": "Power fist",
    "cost": 350,
    "AP": 4,
    "damage": "4d6 bludgeoning.",
    "crit": "20, prone, knockback 15 feet.",
    "details": "Uses energy cells, 20 rounds.",
    "carryLoad": 5,
    "strReq": 5,
    "type": "unarmed"
  }
]