[
  {
    "level": 0,
    "details": "No radiation levels"
  },
  {
    "level": 1,
    "details": "Headache No immediate effect"
  },
  {
    "level": 2,
    "details": "Fatigued -2 Healing Rate"
  },
  {
    "level": 3,
    "details": "Nauseous -4 Healing Rate, -1 END"
  },
  {
    "level": 4,
    "details": "Cell Degradation -6 Healing Rate, -3 END, -1 AGI & STR"
  },
  {
    "level": 5,
    "details": "Skin is falling off -6 Healing Rate, -5 END, -3 AGI & STR. Roll a d20, on a 10 to 20 the character turns into a ghoul over the course of 1d10 days."
  },
  {
    "level": 6,
    "details": "Intense agony If not cured within 24 hours, the character dies. If the character dies, roll a d20, on a 10 to 20 the character turns into a feral ghoul."
  }
]
