[
  {
    "name": "Buffout",
    "cost": 20,
    "details": [
      "Gain advantage on all Strength and",
      "Endurance checks. Gain temporary",
      "HP equal to x2 your END score. 1 hour. DC: 5 Disadvantage on all",
      "Strength and",
      "Endurance checks. Load: 1 (10)"
    ],
    "carryLoad": 0.1
  },
  {
    "name": "Buffjet",
    "cost": 50,
    "details": [
      "Gain advantage on all Strength and",
      "Endurance checks. Gain temporary",
      "HP equal to x3 your END score.",
      "Regain Stamina Points equal to your",
      "healing rate each turn. 1 hour. DC: 6 Disadvantage on all",
      "Strength and",
      "Endurance checks. Load: 1 (10)"
    ],
    "carryLoad": 0.1
  },
  {
    "name": "Bufftats",
    "cost": 50,
    "details": [
      "Gain advantage on all Strength,",
      "Intelligence, and Endurance checks.",
      "Gain temporary HP equal to x2 your",
      "END score. Gain a +5 to passive",
      "perception. 1 hour. DC: 6 Disadvantage on all",
      "Strength and",
      "Endurance checks. Load: 1 (10)"
    ],
    "carryLoad": 0.1
  },
  {
    "name": "Calmex",
    "cost": 100,
    "details": [
      "Gain a +5 to passive perception and",
      "damage from sneak attack crits are",
      "doubled. 1 hour. DC: 5 Disadvantage on all",
      "Agility Checks. Load: 1",
      "Coyote tobacco chew 1c",
      "Gain advantage on combat sequence",
      "checks and remove one level of",
      "exhaustion. If you had removed a",
      "level of exhaustion, you gain two",
      "more after the effects of this chem",
      "end. 6 hours. DC: 5 Disadvantage on all",
      "Perception checks. Load: 1 (10)"
    ],
    "carryLoad": 0.1
  },
  {
    "name": "Daddy-O",
    "cost": 50,
    "details": [
      "Gain advantage on all Perception and",
      "Intelligence checks, +5 to passive",
      "perception and combat sequence.",
      "Gain disadvantage on all Charisma",
      "checks. 1 hour. DC: 6 -5 to Passive",
      "Perception. Load: 1 (10)"
    ],
    "carryLoad": 0.1
  },
  {
    "name": "Day Tripper",
    "cost": 40,
    "details": [
      "You gain advantage on all checks and",
      "you may flip your Karma Cap. 1 hour. DC: 5 Your Karma Cap",
      "grants you no benefit. Load: 1 (10)"
    ],
    "carryLoad": 0.1
  },
  {
    "name": "Fury",
    "cost": 60,
    "details": [
      "Gain disadvantage on all attacks, but +10 damage with melee weapons. ",
      "15 minutes. DC: 5 -2 to base AC.48"
    ],
    "carryLoad": 0.1
  },
  {
    "name": "Hydra",
    "cost": 55,
    "details": [
      "Heals all Limb Conditions. 1 hour. DC: 5 Your maximum HP",
      "is reduced by a",
      "number equal to",
      "your level. Load: 1"
    ],
    "carryLoad": 1
  },
  {
    "name": "Jet",
    "cost": 20,
    "details": [
      "You gain an extra 10 action points to",
      "use on your turn. Instantaneous DC: 3 Disadvantage on all",
      "Agility checks and",
      "attack rolls. Load: 1"
    ],
    "carryLoad": 1
  },
  {
    "name": "Jet Fuel",
    "cost": 30,
    "details": [
      "Regain all your Action Points. Instantaneous DC: 3 Disadvantage on all",
      "Agility checks and",
      "attack rolls. Load: 1"
    ],
    "carryLoad": 1
  },
  {
    "name": "Rocket",
    "cost": 50,
    "details": [
      "Your total action points are equal to",
      "15. 1 minute. DC: 6 Disadvantage on all",
      "Agility checks and",
      "attack rolls. Load: 1"
    ],
    "carryLoad": 1
  },
  {
    "name": "Ultrajet",
    "cost": 80,
    "details": [
      "Regain all Stamina and Action Points. Instantaneous DC: 6 Disadvantage on all",
      "Agility checks and",
      "attack rolls. Load: 1"
    ],
    "carryLoad": 1
  },
  {
    "name": "Med-X",
    "cost": 50,
    "details": [
      "Gain resistance to all damage dealt to",
      "you HP. 15 minutes. DC: 3 Every time you take",
      "damage to your HP,",
      "you take 1 more. Load: 1"
    ],
    "carryLoad": 1
  },
  {
    "name": "Mentats",
    "cost": 40,
    "details": [
      "All Crafting DC's are lowered by 2",
      "and whenever you heal yourself or",
      "another creature of their hit points,",
      "you heal a bonus equal to their level. 1 hour. DC: 3 Disadvantage on",
      "Charisma checks. Load: 1 (10)"
    ],
    "carryLoad": 0.1
  },
  {
    "name": "Berry Mentats",
    "cost": 60,
    "details": [
      "You gain advantage on all Intelligence",
      "checks. 1 hour. DC: 3 Disadvantage on",
      "Charisma checks. Load: 1 (10)"
    ],
    "carryLoad": 0.1
  },
  {
    "name": "Grape Mentats",
    "cost": 60,
    "details": [
      "You gain advantage on Barter checks",
      "and item costs are reduced by 10%. 1 hour. DC: 3 Disadvantage on",
      "Charisma checks. Load: 1 (10)"
    ],
    "carryLoad": 0.1
  },
  {
    "name": "Orange Mentats",
    "cost": 60,
    "details": [
      "You gain a +3 to targeted attack rolls. 1 hour. ",
      "DC: 3 Disadvantage on",
      "Charisma checks. Load: 1 (10)"
    ],
    "carryLoad": 0.1
  },
  {
    "name": "Overdrive",
    "cost": 55,
    "details": [
      "You gain a +5 to damage and crit",
      "chance with any weapon. 15 minutes. DC: 5 -2 to base AC. Load: 1"
    ],
    "carryLoad": 1
  },
  {
    "name": "Psycho",
    "cost": 50,
    "details": [
      "You gain a +5 damage with all",
      "weapons and a +2 to Damage",
      "Threshold. 15 minutes. DC: 5 -2 to base AC. Load: 1"
    ],
    "carryLoad": 1
  },
  {
    "name": "Psycho buff",
    "cost": 80,
    "details": [
      "You gain a +5 damage with all",
      "weapons and temporary HP equal to",
      "x2 your END score. 1 hour. DC: 6 -2 to base AC. Load: 1"
    ],
    "carryLoad": 1
  },
  {
    "name": "Psycho jet",
    "cost": 80,
    "details": [
      "You gain an extra 10 action points to",
      "use on your turn and a +5 damage",
      "with all weapons 1 hour. DC: 6 -2 to base AC. Load: 1"
    ],
    "carryLoad": 1
  },
  {
    "name": "Rebound",
    "cost": 20,
    "details": [
      "Recycle all your unused action points",
      "at the end of your turn. 1 hour. DC: 5 Disadvantage on all",
      "Agility checks and",
      "attack rolls. Load: 1"
    ],
    "carryLoad": 1
  },
  {
    "name": "Steady",
    "cost": 50,
    "details": [
      "Double your range with all weapons",
      "and gain advantage on all attack rolls",
      ". 1 hour. DC: 5 Disadvantage on all",
      "attack rolls. Load: 1"
    ],
    "carryLoad": 1
  },
  {
    "name": "X-cell",
    "cost": 100,
    "details": [
      "Gain advantage on all checks and",
      "attack rolls. 1 hour. DC: 5 Gain disadvantage",
      "on all checks and",
      "attack rolls. Load: 1"
    ],
    "carryLoad": 1
  }
]
