[
  {
    "name": "Milsurp Review",
    "cost": 50,
    "details": [
      "+1 to Guns for 1 hour.",
      "After reading 5 different issues Gain a Permanent +1 to Guns."
    ],
    "carryLoad": 1
  },
  {
    "name": "Future Weapons Today",
    "cost": 50,
    "details": [
      "+1 to Energy Weapons for 1 hour.",
      "After reading 5 different issues Gain a Permanent +1 to Energy Weapons."
    ],
    "carryLoad": 1
  },
  {
    "name": "Patriot's Cookbook",
    "cost": 50,
    "details": [
      "+1 to Explosives for 1 hour.",
      "After reading 5 different issues Gain a Permanent +1 to Explosives."
    ],
    "carryLoad": 1
  },
  {
    "name": "Tæles of Chivalrie",
    "cost": 50,
    "details": [
      "+1 to Melee Weapons for 1 hour.",
      "After reading 5 different issues Gain a Permanent +1 to Melee Weapons."
    ],
    "carryLoad": 1
  },
  {
    "name": "Boxing Times",
    "cost": 50,
    "details": [
      "+1 to Unarmed for 1 hour.",
      "After reading 5 different issues Gain a Permanent +1 to Unarmed."
    ],
    "carryLoad": 1
  },
  {
    "name": "Today's Physician",
    "cost": 50,
    "details": [
      "+1 to Medicine for 1 hour.",
      "After reading 5 different issues Gain a Permanent +1 to Medicine."
    ],
    "carryLoad": 1
  },
  {
    "name": "Locksmith's Reader",
    "cost": 50,
    "details": [
      "+1 to Lockpick for 1 hour.",
      "After reading 5 different issues Gain a Permanent +1 to Lockpick."
    ],
    "carryLoad": 1
  },
  {
    "name": "Fixin’ Things",
    "cost": 50,
    "details": [
      "+1 to Crafting for 1 hour.",
      "After reading 5 different issues Gain a Permanent +1 to Crafting."
    ],
    "carryLoad": 1
  },
  {
    "name": "¡La Fantoma!",
    "cost": 50,
    "details": [
      "+1 to Sneak for 1 hour.",
      "After reading 5 different issues Gain a Permanent +1 to Sneak."
    ],
    "carryLoad": 1
  },
  {
    "name": "Lad's Life",
    "cost": 50,
    "details": [
      "+1 to Survival for 1 hour.",
      "After reading 5 different issues Gain a Permanent +1 to Survival."
    ],
    "carryLoad": 1
  },
  {
    "name": "Lawyer Inquirer",
    "cost": 50,
    "details": [
      "+1 to Deception for 1 hour.",
      "After reading 5 different issues Gain a Permanent +1 to Deception."
    ],
    "carryLoad": 1
  },
  {
    "name": "Salesman Weekly",
    "cost": 50,
    "details": [
      "+1 to Barter for 1 hour.",
      "After reading 5 different issues Gain a Permanent +1 to Barter."
    ],
    "carryLoad": 1
  },
  {
    "name": "Horror Comics",
    "cost": 50,
    "details": [
      "+1 to Intimidation for 1 hour.",
      "After reading 5 different issues Gain a Permanent +1 to Intimidation."
    ],
    "carryLoad": 1
  },
  {
    "name": "Meeting People",
    "cost": 50,
    "details": [
      "+1 to Persuasion for 1 hour.",
      "After reading 5 different issues Gain a Permanent +1 to Persuasion."
    ],
    "carryLoad": 1
  },
  {
    "name": "Programmer's Digest",
    "cost": 50,
    "details": [
      "+1 to Science for 1 hour.",
      "After reading 5 different issues Gain a Permanent +1 to Science."
    ],
    "carryLoad": 1
  },
  {
    "name": "True Police Stories",
    "cost": 50,
    "details": [
      "+1 Crit Chance with all weapons",
      "After reading 10 different issues Gain a Permanent +1 to Crit Chance with all weapons."
    ],
    "carryLoad": 1
  }
]
